\BOOKMARK [0][-]{chapter.1}{Introduction}{}% 1
\BOOKMARK [1][-]{section.1.1}{Meteors}{chapter.1}% 2
\BOOKMARK [1][-]{section.1.2}{Introduction to SDSS}{chapter.1}% 3
\BOOKMARK [2][-]{subsection.1.2.1}{Camera}{section.1.2}% 4
\BOOKMARK [2][-]{subsection.1.2.2}{Run, camcol, filter, field}{section.1.2}% 5
\BOOKMARK [2][-]{subsection.1.2.3}{Data access, files and folder structure}{section.1.2}% 6
\BOOKMARK [1][-]{section.1.3}{Space and time constraint estimates}{chapter.1}% 7
\BOOKMARK [1][-]{section.1.4}{Why Python?}{chapter.1}% 8
\BOOKMARK [0][-]{chapter.2}{Linear Feature Detection Software}{}% 9
\BOOKMARK [1][-]{section.2.1}{Dependencies}{chapter.2}% 10
\BOOKMARK [2][-]{subsection.2.1.1}{Erin Sheldon's SDSSPY}{section.2.1}% 11
\BOOKMARK [2][-]{subsection.2.1.2}{Erin Sheldon's FITSIO}{section.2.1}% 12
\BOOKMARK [2][-]{subsection.2.1.3}{OpenCV}{section.2.1}% 13
\BOOKMARK [3][-]{subsubsection.2.1.3.1}{Erosion and Dilatation}{subsection.2.1.3}% 14
\BOOKMARK [3][-]{subsubsection.2.1.3.2}{Histogram equalization}{subsection.2.1.3}% 15
\BOOKMARK [3][-]{subsubsection.2.1.3.3}{Canny edge detection}{subsection.2.1.3}% 16
\BOOKMARK [3][-]{subsubsection.2.1.3.4}{Contours detection}{subsection.2.1.3}% 17
\BOOKMARK [3][-]{subsubsection.2.1.3.5}{Minimal Area Rectangle}{subsection.2.1.3}% 18
\BOOKMARK [3][-]{subsubsection.2.1.3.6}{Hough transform}{subsection.2.1.3}% 19
\BOOKMARK [1][-]{section.2.2}{LFDS Modules}{chapter.2}% 20
\BOOKMARK [2][-]{subsection.2.2.1}{analyse}{section.2.2}% 21
\BOOKMARK [2][-]{subsection.2.2.2}{createjobs}{section.2.2}% 22
\BOOKMARK [2][-]{subsection.2.2.3}{errors}{section.2.2}% 23
\BOOKMARK [2][-]{subsection.2.2.4}{results}{section.2.2}% 24
\BOOKMARK [3][-]{subsubsection.2.2.4.1}{imagechecker}{subsection.2.2.4}% 25
\BOOKMARK [2][-]{subsection.2.2.5}{detecttrails}{section.2.2}% 26
\BOOKMARK [3][-]{subsubsection.2.2.5.1}{processfield}{subsection.2.2.5}% 27
\BOOKMARK [3][-]{subsubsection.2.2.5.2}{removestars}{subsection.2.2.5}% 28
\BOOKMARK [1][-]{section.2.3}{LFDS recap and processing examples}{chapter.2}% 29
\BOOKMARK [0][-]{chapter.3}{LFDS benchmarking}{}% 30
\BOOKMARK [1][-]{section.3.1}{Execution time}{chapter.3}% 31
\BOOKMARK [1][-]{section.3.2}{Detection rates}{chapter.3}% 32
\BOOKMARK [0][-]{chapter.4}{Conclusion}{}% 33
\BOOKMARK [0][-]{chapter.4}{Bibliography}{}% 34
