\relax 
\providecommand\hyper@newdestlabel[2]{}
\providecommand\HyperFirstAtBeginDocument{\AtBeginDocument}
\HyperFirstAtBeginDocument{\ifx\hyper@anchor\@undefined
\global\let\oldcontentsline\contentsline
\gdef\contentsline#1#2#3#4{\oldcontentsline{#1}{#2}{#3}}
\global\let\oldnewlabel\newlabel
\gdef\newlabel#1#2{\newlabelxx{#1}#2}
\gdef\newlabelxx#1#2#3#4#5#6{\oldnewlabel{#1}{{#2}{#3}}}
\AtEndDocument{\ifx\hyper@anchor\@undefined
\let\contentsline\oldcontentsline
\let\newlabel\oldnewlabel
\fi}
\fi}
\global\let\hyper@last\relax 
\gdef\HyperFirstAtBeginDocument#1{#1}
\providecommand\HyField@AuxAddToFields[1]{}
\providecommand\HyField@AuxAddToCoFields[2]{}
\citation{SDSSDR12}
\citation{SolSysObj,CometsSDSS}
\citation{Iye04}
\@writefile{toc}{\contentsline {chapter}{\numberline {1}Introduction}{10}{chapter.1}}
\@writefile{lof}{\addvspace {10\p@ }}
\@writefile{lot}{\addvspace {10\p@ }}
\newlabel{ch:intro}{{1}{10}{Introduction}{chapter.1}{}}
\citation{Rubin10}
\citation{IMOmeteor}
\citation{Jenniskens06}
\citation{MeteorsAster}
\citation{MeteorsPlanet}
\citation{VisMetObs}
\citation{IMOangvel}
\citation{VisMetObs}
\@writefile{toc}{\contentsline {section}{\numberline {1.1}Meteors}{11}{section.1.1}}
\newlabel{sec:meteors}{{1.1}{11}{Meteors}{section.1.1}{}}
\citation{SDSStech}
\citation{IMOtraillen}
\citation{Iye04}
\citation{Trigo08}
\citation{IMOangvel}
\citation{Trigo08}
\citation{Ahn12}
\citation{SDSSDR12}
\citation{Gunn06}
\citation{Gunn98}
\newlabel{eq:orbital}{{1.1}{13}{Meteors}{equation.1.1.1}{}}
\@writefile{toc}{\contentsline {section}{\numberline {1.2}Introduction to SDSS}{13}{section.1.2}}
\newlabel{sec:SDSSintro}{{1.2}{13}{Introduction to SDSS}{section.1.2}{}}
\@writefile{toc}{\contentsline {subsection}{\numberline {1.2.1}Camera}{13}{subsection.1.2.1}}
\newlabel{subsec:camera}{{1.2.1}{13}{Camera}{subsection.1.2.1}{}}
\@writefile{lof}{\contentsline {figure}{\numberline {1.1}{\ignorespaces SDSS Camera layout.\relax }}{14}{figure.caption.8}}
\providecommand*\caption@xref[2]{\@setref\relax\@undefined{#1}}
\newlabel{fig:CCDLayout}{{1.1}{14}{SDSS Camera layout.\relax }{figure.caption.8}{}}
\@writefile{lof}{\contentsline {figure}{\numberline {1.2}{\ignorespaces SDSS telescopes focal plane.\relax }}{15}{figure.caption.9}}
\newlabel{fig:FocalPlane}{{1.2}{15}{SDSS telescopes focal plane.\relax }{figure.caption.9}{}}
\@writefile{toc}{\contentsline {subsection}{\numberline {1.2.2}Run, camcol, filter, field}{15}{subsection.1.2.2}}
\newlabel{subsesec:run-camcol-filter-field}{{1.2.2}{15}{Run, camcol, filter, field}{subsection.1.2.2}{}}
\citation{Gray02}
\citation{Bektesevic13}
\citation{BOSS}
\@writefile{toc}{\contentsline {subsection}{\numberline {1.2.3}Data access, files and folder structure}{16}{subsection.1.2.3}}
\newlabel{subsec:SDSSfolder}{{1.2.3}{16}{Data access, files and folder structure}{subsection.1.2.3}{}}
\@writefile{lof}{\contentsline {figure}{\numberline {1.3}{\ignorespaces CAS folder structure.\relax }}{16}{figure.caption.10}}
\newlabel{fig:CASfolder}{{1.3}{16}{CAS folder structure.\relax }{figure.caption.10}{}}
\newlabel{lst:runList}{{1.1}{18}{sdssFileTypes.par}{lstlisting.1.1}{}}
\@writefile{lol}{\contentsline {lstlisting}{\numberline {1.1}sdssFileTypes.par}{18}{lstlisting.1.1}}
\@writefile{toc}{\contentsline {section}{\numberline {1.3}Space and time constraint estimates}{18}{section.1.3}}
\newlabel{sec:constraints}{{1.3}{18}{Space and time constraint estimates}{section.1.3}{}}
\citation{Bektesevic13}
\newlabel{lst:bunziptime}{{1.2}{20}{bunzip time test}{lstlisting.1.2}{}}
\@writefile{lol}{\contentsline {lstlisting}{\numberline {1.2}bunzip time test}{20}{lstlisting.1.2}}
\@writefile{toc}{\contentsline {section}{\numberline {1.4}Why Python?}{21}{section.1.4}}
\newlabel{sec:whypython}{{1.4}{21}{Why Python?}{section.1.4}{}}
\@writefile{toc}{\contentsline {chapter}{\numberline {2}Linear Feature Detection Software}{23}{chapter.2}}
\@writefile{lof}{\addvspace {10\p@ }}
\@writefile{lot}{\addvspace {10\p@ }}
\newlabel{ch:LFDS}{{2}{23}{Linear Feature Detection Software}{chapter.2}{}}
\newlabel{lst:start.sh}{{2.1}{24}{start.sh}{lstlisting.2.1}{}}
\@writefile{lol}{\contentsline {lstlisting}{\numberline {2.1}start.sh}{24}{lstlisting.2.1}}
\@writefile{toc}{\contentsline {section}{\numberline {2.1}Dependencies}{24}{section.2.1}}
\newlabel{sec:dependencies}{{2.1}{24}{Dependencies}{section.2.1}{}}
\@writefile{toc}{\contentsline {subsection}{\numberline {2.1.1}Erin Sheldon's SDSSPY}{24}{subsection.2.1.1}}
\newlabel{subsec:SDSSPY}{{2.1.1}{24}{Erin Sheldon's SDSSPY}{subsection.2.1.1}{}}
\newlabel{lst:sdsspyfilesbefore}{{2.2}{24}{original SDSSPY files module}{lstlisting.2.2}{}}
\@writefile{lol}{\contentsline {lstlisting}{\numberline {2.2}original SDSSPY files module}{24}{lstlisting.2.2}}
\newlabel{lst:sdsspyfilesafter}{{2.3}{25}{edited SDSSPY files module}{lstlisting.2.3}{}}
\@writefile{lol}{\contentsline {lstlisting}{\numberline {2.3}edited SDSSPY files module}{25}{lstlisting.2.3}}
\newlabel{lst:sdsspyhdfsbefore}{{2.4}{25}{original \_glob\_hdfs\_pattern function}{lstlisting.2.4}{}}
\@writefile{lol}{\contentsline {lstlisting}{\numberline {2.4}original \_glob\_hdfs\_pattern function}{25}{lstlisting.2.4}}
\newlabel{lst:sdsspyhdfsafter}{{2.5}{25}{edited \_glob\_hdfs\_pattern function}{lstlisting.2.5}{}}
\@writefile{lol}{\contentsline {lstlisting}{\numberline {2.5}edited \_glob\_hdfs\_pattern function}{25}{lstlisting.2.5}}
\@writefile{toc}{\contentsline {subsection}{\numberline {2.1.2}Erin Sheldon's FITSIO}{26}{subsection.2.1.2}}
\newlabel{subsec:fitsio}{{2.1.2}{26}{Erin Sheldon's FITSIO}{subsection.2.1.2}{}}
\@writefile{toc}{\contentsline {subsection}{\numberline {2.1.3}OpenCV}{26}{subsection.2.1.3}}
\newlabel{subsec:cv2}{{2.1.3}{26}{OpenCV}{subsection.2.1.3}{}}
\citation{Canny}
\@writefile{toc}{\contentsline {subsubsection}{\numberline {2.1.3.1}Erosion and Dilatation}{27}{subsubsection.2.1.3.1}}
\newlabel{ssubsec:erodedilate}{{2.1.3.1}{27}{Erosion and Dilatation}{subsubsection.2.1.3.1}{}}
\@writefile{toc}{\contentsline {subsubsection}{\numberline {2.1.3.2}Histogram equalization}{27}{subsubsection.2.1.3.2}}
\newlabel{ssubsec:histeq}{{2.1.3.2}{27}{Histogram equalization}{subsubsection.2.1.3.2}{}}
\@writefile{toc}{\contentsline {subsubsection}{\numberline {2.1.3.3}Canny edge detection}{27}{subsubsection.2.1.3.3}}
\newlabel{ssubsec:canny}{{2.1.3.3}{27}{Canny edge detection}{subsubsection.2.1.3.3}{}}
\citation{Suzuki85}
\citation{Teh89}
\citation{MinAreaRect}
\@writefile{toc}{\contentsline {subsubsection}{\numberline {2.1.3.4}Contours detection}{28}{subsubsection.2.1.3.4}}
\newlabel{ssubsec:contours}{{2.1.3.4}{28}{Contours detection}{subsubsection.2.1.3.4}{}}
\@writefile{lot}{\contentsline {table}{\numberline {2.1}{\ignorespaces Contours mode options.\relax }}{28}{table.caption.11}}
\newlabel{tb:contoursmode}{{2.1}{28}{Contours mode options.\relax }{table.caption.11}{}}
\@writefile{lot}{\contentsline {table}{\numberline {2.2}{\ignorespaces Contours method options.\relax }}{28}{table.caption.12}}
\newlabel{tb:contoursmethod}{{2.2}{28}{Contours method options.\relax }{table.caption.12}{}}
\@writefile{toc}{\contentsline {subsubsection}{\numberline {2.1.3.5}Minimal Area Rectangle}{28}{subsubsection.2.1.3.5}}
\newlabel{ssubsec:minarearect}{{2.1.3.5}{28}{Minimal Area Rectangle}{subsubsection.2.1.3.5}{}}
\citation{Hough}
\@writefile{toc}{\contentsline {subsubsection}{\numberline {2.1.3.6}Hough transform}{29}{subsubsection.2.1.3.6}}
\newlabel{ssubsec:hough}{{2.1.3.6}{29}{Hough transform}{subsubsection.2.1.3.6}{}}
\newlabel{eq:Line}{{2.1}{29}{Hough transform}{equation.2.1.1}{}}
\newlabel{eq:ParamLine}{{2.2}{29}{Hough transform}{equation.2.1.2}{}}
\newlabel{eq:HoughLine}{{2.3}{29}{Hough transform}{equation.2.1.3}{}}
\@writefile{lof}{\contentsline {figure}{\numberline {2.1}{\ignorespaces Hough space of an image with 3 dots.\relax }}{30}{figure.caption.13}}
\newlabel{fig:houghdots}{{2.1}{30}{Hough space of an image with 3 dots.\relax }{figure.caption.13}{}}
\@writefile{lof}{\contentsline {figure}{\numberline {2.2}{\ignorespaces Hough space of an image with a circle and a line.\relax }}{31}{figure.caption.14}}
\newlabel{fig:houghline}{{2.2}{31}{Hough space of an image with a circle and a line.\relax }{figure.caption.14}{}}
\@writefile{lof}{\contentsline {figure}{\numberline {2.3}{\ignorespaces Hough space of an image with a line and lot of circles.\relax }}{31}{figure.caption.15}}
\newlabel{fig:houghcircles}{{2.3}{31}{Hough space of an image with a line and lot of circles.\relax }{figure.caption.15}{}}
\@writefile{toc}{\contentsline {section}{\numberline {2.2}LFDS Modules}{32}{section.2.2}}
\newlabel{sec:LFDSLayout}{{2.2}{32}{LFDS Modules}{section.2.2}{}}
\@writefile{lof}{\contentsline {figure}{\numberline {2.4}{\ignorespaces Modules and submodules of LFDS\relax }}{33}{figure.caption.16}}
\newlabel{fig:modulelayout}{{2.4}{33}{Modules and submodules of LFDS\relax }{figure.caption.16}{}}
\@writefile{toc}{\contentsline {subsection}{\numberline {2.2.1}analyse}{33}{subsection.2.2.1}}
\newlabel{subsec:analyze}{{2.2.1}{33}{analyse}{subsection.2.2.1}{}}
\@writefile{toc}{\contentsline {subsection}{\numberline {2.2.2}createjobs}{34}{subsection.2.2.2}}
\newlabel{subsec:createjobs}{{2.2.2}{34}{createjobs}{subsection.2.2.2}{}}
\newlabel{lst:dqsfile}{{2.6}{35}{Generic dqs file}{lstlisting.2.6}{}}
\@writefile{lol}{\contentsline {lstlisting}{\numberline {2.6}Generic dqs file}{35}{lstlisting.2.6}}
\@writefile{lot}{\contentsline {table}{\numberline {2.3}{\ignorespaces Generic dqs file parameter names and description.\relax }}{36}{table.caption.17}}
\newlabel{tb:cjparams}{{2.3}{36}{Generic dqs file parameter names and description.\relax }{table.caption.17}{}}
\newlabel{lst:cjcase1}{{2.7}{37}{Jobs use case 1}{lstlisting.2.7}{}}
\@writefile{lol}{\contentsline {lstlisting}{\numberline {2.7}Jobs use case 1}{37}{lstlisting.2.7}}
\newlabel{lst:cjcase2}{{2.8}{37}{Jobs use case 2}{lstlisting.2.8}{}}
\@writefile{lol}{\contentsline {lstlisting}{\numberline {2.8}Jobs use case 2}{37}{lstlisting.2.8}}
\newlabel{lst:cjcase2camcol}{{2.9}{38}{Jobs use case 2, further specification}{lstlisting.2.9}{}}
\@writefile{lol}{\contentsline {lstlisting}{\numberline {2.9}Jobs use case 2, further specification}{38}{lstlisting.2.9}}
\newlabel{lst:cjcase2filter}{{2.10}{38}{Jobs use case 2, fully specified}{lstlisting.2.10}{}}
\@writefile{lol}{\contentsline {lstlisting}{\numberline {2.10}Jobs use case 2, fully specified.}{38}{lstlisting.2.10}}
\newlabel{lst:cjcommand}{{2.11}{39}{Jobs use case, overriding COMMAND}{lstlisting.2.11}{}}
\@writefile{lol}{\contentsline {lstlisting}{\numberline {2.11}Jobs use case, overriding COMMAND}{39}{lstlisting.2.11}}
\newlabel{lst:replacedcommand}{{2.12}{39}{Example of a command attribute overriding COMMAND string in a dqs file}{lstlisting.2.12}{}}
\@writefile{lol}{\contentsline {lstlisting}{\numberline {2.12}Example of a command attribute overriding COMMAND string in a dqs file.}{39}{lstlisting.2.12}}
\newlabel{lst:cjcase3}{{2.13}{40}{Jobs use case 3}{lstlisting.2.13}{}}
\@writefile{lol}{\contentsline {lstlisting}{\numberline {2.13}Jobs use case 3}{40}{lstlisting.2.13}}
\@writefile{toc}{\contentsline {subsection}{\numberline {2.2.3}errors}{40}{subsection.2.2.3}}
\newlabel{subsec:errors}{{2.2.3}{40}{errors}{subsection.2.2.3}{}}
\newlabel{lst:errformat}{{2.14}{41}{Error format}{lstlisting.2.14}{}}
\@writefile{lol}{\contentsline {lstlisting}{\numberline {2.14}Error format}{41}{lstlisting.2.14}}
\@writefile{toc}{\contentsline {subsection}{\numberline {2.2.4}results}{41}{subsection.2.2.4}}
\newlabel{subsec:results}{{2.2.4}{41}{results}{subsection.2.2.4}{}}
\@writefile{lof}{\contentsline {figure}{\numberline {2.5}{\ignorespaces Design of Results class.\relax }}{42}{figure.caption.18}}
\newlabel{fig:refRes}{{2.5}{42}{Design of Results class.\relax }{figure.caption.18}{}}
\@writefile{lof}{\contentsline {figure}{\numberline {2.6}{\ignorespaces Composition diagram of Results class.\relax }}{43}{figure.caption.19}}
\newlabel{fig:resicomposition}{{2.6}{43}{Composition diagram of Results class.\relax }{figure.caption.19}{}}
\newlabel{lst:resformat}{{2.15}{44}{Results format}{lstlisting.2.15}{}}
\@writefile{lol}{\contentsline {lstlisting}{\numberline {2.15}Results format}{44}{lstlisting.2.15}}
\@writefile{toc}{\contentsline {subsubsection}{\numberline {2.2.4.1}imagechecker}{44}{subsubsection.2.2.4.1}}
\newlabel{ssubsec:imagechecker}{{2.2.4.1}{44}{imagechecker}{subsubsection.2.2.4.1}{}}
\newlabel{lst:imgchrun}{{2.16}{44}{Running imagechecker}{lstlisting.2.16}{}}
\@writefile{lol}{\contentsline {lstlisting}{\numberline {2.16}Running imagechecker.}{44}{lstlisting.2.16}}
\@writefile{lof}{\contentsline {figure}{\numberline {2.7}{\ignorespaces imagechecker GUI design.\relax }}{45}{figure.caption.20}}
\newlabel{fig:GUI}{{2.7}{45}{imagechecker GUI design.\relax }{figure.caption.20}{}}
\@writefile{lof}{\contentsline {figure}{\numberline {2.8}{\ignorespaces How resizing affects line width and intensity.\relax }}{46}{figure.caption.21}}
\newlabel{fig:resizepattern}{{2.8}{46}{How resizing affects line width and intensity.\relax }{figure.caption.21}{}}
\@writefile{toc}{\contentsline {subsection}{\numberline {2.2.5}detecttrails}{46}{subsection.2.2.5}}
\newlabel{subsec:detecttrails}{{2.2.5}{46}{detecttrails}{subsection.2.2.5}{}}
\@writefile{lof}{\contentsline {figure}{\numberline {2.9}{\ignorespaces detecttrails module layout.\relax }}{47}{figure.caption.22}}
\newlabel{fig:dtmodulelayout}{{2.9}{47}{detecttrails module layout.\relax }{figure.caption.22}{}}
\newlabel{lst:dtcase1}{{2.17}{47}{DetectTrails instantiation, case 1}{lstlisting.2.17}{}}
\@writefile{lol}{\contentsline {lstlisting}{\numberline {2.17}DetectTrails instantiation, case 1}{47}{lstlisting.2.17}}
\newlabel{lst:dtcase2}{{2.18}{48}{DetectTrails instantiation, case 2}{lstlisting.2.18}{}}
\@writefile{lol}{\contentsline {lstlisting}{\numberline {2.18}DetectTrails instantiation, case 2}{48}{lstlisting.2.18}}
\gdef \LT@i {\LT@entry 
    {1}{103.81667pt}\LT@entry 
    {1}{94.73296pt}\LT@entry 
    {1}{182.71652pt}}
\@writefile{lot}{\contentsline {table}{\numberline {2.4}{\ignorespaces All adjustable processing parameters and their description.}}{50}{table.2.4}}
\newlabel{tb:dtparams}{{2.4}{50}{All adjustable processing parameters and their description}{table.2.4}{}}
\@writefile{toc}{\contentsline {subsubsection}{\numberline {2.2.5.1}processfield}{50}{subsubsection.2.2.5.1}}
\newlabel{ssubsec:processfield}{{2.2.5.1}{50}{processfield}{subsubsection.2.2.5.1}{}}
\@writefile{lof}{\contentsline {figure}{\numberline {2.10}{\ignorespaces frame-irg-002888-1-0017, a composit image made out of i, r and g filters.\relax }}{51}{figure.caption.23}}
\newlabel{fig:largestar}{{2.10}{51}{frame-irg-002888-1-0017, a composit image made out of i, r and g filters.\relax }{figure.caption.23}{}}
\newlabel{lst:pfbright1}{{2.19}{51}{process\_field\_bright, step 1}{lstlisting.2.19}{}}
\@writefile{lol}{\contentsline {lstlisting}{\numberline {2.19}process\_field\_bright, step 1}{51}{lstlisting.2.19}}
\newlabel{lst:pfdim1}{{2.20}{51}{process\_field\_dim, step 1}{lstlisting.2.20}{}}
\@writefile{lol}{\contentsline {lstlisting}{\numberline {2.20}process\_field\_dim, step 1}{51}{lstlisting.2.20}}
\@writefile{lof}{\contentsline {figure}{\numberline {2.11}{\ignorespaces Processing result of BRIGHT on the left and DIM on the right.\relax }}{53}{figure.caption.24}}
\newlabel{fig:equBRIGHTDIM}{{2.11}{53}{Processing result of BRIGHT on the left and DIM on the right.\relax }{figure.caption.24}{}}
\newlabel{lst:pfbright2}{{2.21}{53}{process\_field\_bright, step 2}{lstlisting.2.21}{}}
\@writefile{lol}{\contentsline {lstlisting}{\numberline {2.21}process\_field\_bright, step 2}{53}{lstlisting.2.21}}
\newlabel{lst:pfdim2}{{2.22}{53}{process\_field\_dim, step 2}{lstlisting.2.22}{}}
\@writefile{lol}{\contentsline {lstlisting}{\numberline {2.22}process\_field\_dim, step 2}{53}{lstlisting.2.22}}
\@writefile{lof}{\contentsline {figure}{\numberline {2.12}{\ignorespaces Zoomed in view of the remains of an elongated object after erosion (left) and comparison with that same area after dilatation (right). \relax }}{54}{figure.caption.25}}
\newlabel{fig:zoom}{{2.12}{54}{Zoomed in view of the remains of an elongated object after erosion (left) and comparison with that same area after dilatation (right). \relax }{figure.caption.25}{}}
\@writefile{lof}{\contentsline {figure}{\numberline {2.13}{\ignorespaces Aftermath of erosion and dilatation on DIM (right) and dilatation operator on BRIGHT (left) \relax }}{55}{figure.caption.26}}
\newlabel{fig:erodedilate}{{2.13}{55}{Aftermath of erosion and dilatation on DIM (right) and dilatation operator on BRIGHT (left) \relax }{figure.caption.26}{}}
\newlabel{lst:pfstep3}{{2.23}{56}{process\_field\_dim/bright, step 3}{lstlisting.2.23}{}}
\@writefile{lol}{\contentsline {lstlisting}{\numberline {2.23}process\_field\_dim/bright, step 3}{56}{lstlisting.2.23}}
\citation{Padgham67}
\@writefile{lof}{\contentsline {figure}{\numberline {2.14}{\ignorespaces Canny edges found on our example image.\relax }}{57}{figure.caption.27}}
\newlabel{fig:dtcanny}{{2.14}{57}{Canny edges found on our example image.\relax }{figure.caption.27}{}}
\@writefile{lof}{\contentsline {figure}{\numberline {2.15}{\ignorespaces Contours found among Canny edges.\relax }}{58}{figure.caption.28}}
\newlabel{fig:dtcontours}{{2.15}{58}{Contours found among Canny edges.\relax }{figure.caption.28}{}}
\@writefile{lof}{\contentsline {figure}{\numberline {2.16}{\ignorespaces Minimal area rectangles that passed the lwTresh condition.\relax }}{58}{figure.caption.29}}
\newlabel{fig:dtminAreaRect}{{2.16}{58}{Minimal area rectangles that passed the lwTresh condition.\relax }{figure.caption.29}{}}
\newlabel{lst:pfstep4}{{2.24}{59}{process\_field\_dim/bright, step 4}{lstlisting.2.24}{}}
\@writefile{lol}{\contentsline {lstlisting}{\numberline {2.24}process\_field\_dim/bright, step 4}{59}{lstlisting.2.24}}
\@writefile{lof}{\contentsline {figure}{\numberline {2.17}{\ignorespaces Two sets of hough lines fitted to the image. Minimal area rectangle line set is in red while the lineset in blue belongs to lines fitted to DIM image.\relax }}{61}{figure.caption.30}}
\newlabel{fig:dtchecktheta}{{2.17}{61}{Two sets of hough lines fitted to the image. Minimal area rectangle line set is in red while the lineset in blue belongs to lines fitted to DIM image.\relax }{figure.caption.30}{}}
\@writefile{toc}{\contentsline {subsubsection}{\numberline {2.2.5.2}removestars}{62}{subsubsection.2.2.5.2}}
\newlabel{ssubsec:removestars}{{2.2.5.2}{62}{removestars}{subsubsection.2.2.5.2}{}}
\@writefile{lot}{\contentsline {table}{\numberline {2.5}{\ignorespaces Data model of usefull photoObj data tables.\relax }}{63}{table.caption.31}}
\newlabel{tb:photoObjdata}{{2.5}{63}{Data model of usefull photoObj data tables.\relax }{table.caption.31}{}}
\@writefile{lof}{\contentsline {figure}{\numberline {2.18}{\ignorespaces Original frame-i-002888-1-0139 data.\relax }}{64}{figure.caption.32}}
\newlabel{fig:original}{{2.18}{64}{Original frame-i-002888-1-0139 data.\relax }{figure.caption.32}{}}
\@writefile{lof}{\contentsline {figure}{\numberline {2.19}{\ignorespaces Reconstructed frame using photoObj-002888-1-0139 data.\relax }}{64}{figure.caption.33}}
\newlabel{fig:all}{{2.19}{64}{Reconstructed frame using photoObj-002888-1-0139 data.\relax }{figure.caption.33}{}}
\citation{Stoughton02}
\@writefile{lof}{\contentsline {figure}{\numberline {2.20}{\ignorespaces Reconstructed frame-i-002888-1-0139 with variable square sizes.\relax }}{65}{figure.caption.34}}
\newlabel{fig:allSizes}{{2.20}{65}{Reconstructed frame-i-002888-1-0139 with variable square sizes.\relax }{figure.caption.34}{}}
\@writefile{lof}{\contentsline {figure}{\numberline {2.21}{\ignorespaces Star mask with variable square sizes and filter caps.\relax }}{66}{figure.caption.35}}
\newlabel{fig:allSizesCaps}{{2.21}{66}{Star mask with variable square sizes and filter caps.\relax }{figure.caption.35}{}}
\@writefile{lof}{\contentsline {figure}{\numberline {2.22}{\ignorespaces Star mask with variable square sizes, filter caps and magnitude difference condition.\relax }}{68}{figure.caption.36}}
\newlabel{fig:allSizesCapsDiffs}{{2.22}{68}{Star mask with variable square sizes, filter caps and magnitude difference condition.\relax }{figure.caption.36}{}}
\@writefile{lof}{\contentsline {figure}{\numberline {2.23}{\ignorespaces Final mask used for removal of known objects from the image.\relax }}{69}{figure.caption.37}}
\newlabel{fig:rsmaskfinal}{{2.23}{69}{Final mask used for removal of known objects from the image.\relax }{figure.caption.37}{}}
\@writefile{lof}{\contentsline {figure}{\numberline {2.24}{\ignorespaces Final mask subtracted from the original image.\relax }}{69}{figure.caption.38}}
\newlabel{fig:removestars}{{2.24}{69}{Final mask subtracted from the original image.\relax }{figure.caption.38}{}}
\@writefile{lof}{\contentsline {figure}{\numberline {2.25}{\ignorespaces Final mask for frame-i-002888-1-0017\relax }}{70}{figure.caption.39}}
\newlabel{fig:shitmask}{{2.25}{70}{Final mask for frame-i-002888-1-0017\relax }{figure.caption.39}{}}
\@writefile{lof}{\contentsline {figure}{\numberline {2.26}{\ignorespaces Image recovered by subtracting appropriate mask from the original frame-i-002888-1-0017.\relax }}{71}{figure.caption.40}}
\newlabel{fig:removedshitmask}{{2.26}{71}{Image recovered by subtracting appropriate mask from the original frame-i-002888-1-0017.\relax }{figure.caption.40}{}}
\@writefile{toc}{\contentsline {section}{\numberline {2.3}LFDS recap and processing examples}{71}{section.2.3}}
\newlabel{sec:recap}{{2.3}{71}{LFDS recap and processing examples}{section.2.3}{}}
\newlabel{lst:ex1command}{{2.25}{72}{Command used to run LFDS}{lstlisting.2.25}{}}
\@writefile{lol}{\contentsline {lstlisting}{\numberline {2.25}Command used to run LFDS}{72}{lstlisting.2.25}}
\@writefile{lof}{\contentsline {figure}{\numberline {2.27}{\ignorespaces frame-i-00787-1-0045 processing steps displayed visually for the detect\_bright (left) and detect\_dim functions (right)\relax }}{74}{figure.caption.41}}
\newlabel{fig:noLin}{{2.27}{74}{frame-i-00787-1-0045 processing steps displayed visually for the detect\_bright (left) and detect\_dim functions (right)\relax }{figure.caption.41}{}}
\@writefile{lof}{\contentsline {figure}{\numberline {2.28}{\ignorespaces Processing steps that produced output for frame-i-002888-1-139(left) and frame-u-005973-3-0128 (right).\relax }}{75}{figure.caption.42}}
\newlabel{fig:Lin}{{2.28}{75}{Processing steps that produced output for frame-i-002888-1-139(left) and frame-u-005973-3-0128 (right).\relax }{figure.caption.42}{}}
\citation{LSST}
\citation{Fischler81}
\@writefile{toc}{\contentsline {chapter}{\numberline {3}LFDS benchmarking}{76}{chapter.3}}
\@writefile{lof}{\addvspace {10\p@ }}
\@writefile{lot}{\addvspace {10\p@ }}
\newlabel{ch:resandperf}{{3}{76}{LFDS benchmarking}{chapter.3}{}}
\@writefile{toc}{\contentsline {section}{\numberline {3.1}Execution time}{76}{section.3.1}}
\newlabel{sec:curexectime}{{3.1}{76}{Execution time}{section.3.1}{}}
\@writefile{lof}{\contentsline {figure}{\numberline {3.1}{\ignorespaces Execution times of functions remove\_stars, detect\_bright and detect\_dim.\relax }}{77}{figure.caption.43}}
\newlabel{fig:perfunc}{{3.1}{77}{Execution times of functions remove\_stars, detect\_bright and detect\_dim.\relax }{figure.caption.43}{}}
\@writefile{lof}{\contentsline {figure}{\numberline {3.2}{\ignorespaces Execution times of functions in more details.\relax }}{77}{figure.caption.44}}
\newlabel{fig:perfuncZOOM}{{3.2}{77}{Execution times of functions in more details.\relax }{figure.caption.44}{}}
\citation{LSST}
\citation{Bektesevic13}
\@writefile{lot}{\contentsline {table}{\numberline {3.1}{\ignorespaces Contours mode options.\relax }}{78}{table.caption.45}}
\newlabel{tb:exectime}{{3.1}{78}{Contours mode options.\relax }{table.caption.45}{}}
\@writefile{lof}{\contentsline {figure}{\numberline {3.3}{\ignorespaces Total execution time per frame.\relax }}{79}{figure.caption.46}}
\newlabel{fig:totalexectime}{{3.3}{79}{Total execution time per frame.\relax }{figure.caption.46}{}}
\@writefile{toc}{\contentsline {section}{\numberline {3.2}Detection rates}{80}{section.3.2}}
\newlabel{sec:detectionrates}{{3.2}{80}{Detection rates}{section.3.2}{}}
\@writefile{lof}{\contentsline {figure}{\numberline {3.4}{\ignorespaces Zoomed section of transparent trail.\relax }}{80}{figure.caption.47}}
\newlabel{fig:seethroughtrail}{{3.4}{80}{Zoomed section of transparent trail.\relax }{figure.caption.47}{}}
\@writefile{toc}{\contentsline {chapter}{\numberline {4}Conclusion}{82}{chapter.4}}
\@writefile{lof}{\addvspace {10\p@ }}
\@writefile{lot}{\addvspace {10\p@ }}
\newlabel{ch:conclusion}{{4}{82}{Conclusion}{chapter.4}{}}
\bibstyle{apalike}
\bibdata{LFD_on_SDSS}
\@writefile{toc}{\contentsline {chapter}{Bibliography}{83}{chapter.4}}
\bibcite{Ahn12}{{1}{2012}{{{Ahn} et~al.}}{{}}}
\bibcite{SDSSDR12}{{2}{2015}{{{Alam} et~al.}}{{}}}
\bibcite{Bektesevic13}{{3}{2013}{{Bekte{\v s}evi{\' c}}}{{}}}
\bibcite{Canny}{{4}{1986}{{Canny}}{{}}}
\bibcite{LSST}{{5}{2013}{{{Cikota} et~al.}}{{}}}
\bibcite{BOSS}{{6}{2013}{{{Dawson} et~al.}}{{}}}
\bibcite{Fischler81}{{7}{1981}{{{Fischler} and {Bolles}}}{{}}}
\bibcite{Gray02}{{8}{2002}{{{Gray} et~al.}}{{}}}
\bibcite{Gunn98}{{9}{1998}{{{Gunn} et~al.}}{{}}}
\bibcite{Gunn06}{{10}{2006}{{{Gunn} et~al.}}{{}}}
\bibcite{Hough}{{11}{1959}{{Hough}}{{}}}
\bibcite{IMOangvel}{{12}{1995a}{{IMO}}{{}}}
\bibcite{IMOtraillen}{{13}{1995b}{{IMO}}{{}}}
\bibcite{IMOmeteor}{{14}{1997}{{IMO}}{{}}}
\bibcite{SolSysObj}{{15}{2001}{{{Ivezi{\'c}} et~al.}}{{}}}
\bibcite{Iye04}{{16}{2007}{{{Iye} et~al.}}{{}}}
\bibcite{Jenniskens06}{{17}{2006}{{Jenniskens}}{{}}}
\bibcite{VisMetObs}{{18}{1993}{{McLeod}}{{}}}
\bibcite{MeteorsPlanet}{{19}{2000}{{{Morris} et~al.}}{{}}}
\bibcite{Padgham67}{{20}{1967}{{Padgham}}{{}}}
\bibcite{Rubin10}{{21}{2010}{{{Rubin} and {Grossman}}}{{}}}
\bibcite{CometsSDSS}{{22}{2010}{{{Solontoi} et~al.}}{{}}}
\bibcite{Stoughton02}{{23}{2002}{{{Stoughton} et~al.}}{{}}}
\bibcite{Suzuki85}{{24}{1985}{{{Suzuki} and {Keiichi}}}{{}}}
\bibcite{Teh89}{{25}{1989}{{{Teh} and {Chin}}}{{}}}
\bibcite{MinAreaRect}{{26}{1983}{{Toussaint}}{{}}}
\bibcite{Trigo08}{{27}{2008}{{{Trigo-Rodriguez} et~al.}}{{}}}
\bibcite{MeteorsAster}{{28}{2000}{{{Vokrouhlick{\'y}} and {Farinella}}}{{}}}
\bibcite{SDSStech}{{29}{2000}{{{York} et~al.}}{{}}}
